<?xml version="1.0" encoding="utf-8"?>
<!-- Generator: Adobe Illustrator 18.1.0, SVG Export Plug-In . SVG Version: 6.00 Build 0)  -->
<svg version="1.1" id="Layer_1" xmlns="http://www.w3.org/2000/svg" xmlns:xlink="http://www.w3.org/1999/xlink" x="0px" y="0px"
	 viewBox="0 0 170.4 170.6" enable-background="new 0 0 170.4 170.6" xml:space="preserve">
<g>
	<linearGradient id="SVGID_1_" gradientUnits="userSpaceOnUse" x1="665.4763" y1="4966.0522" x2="832.7128" y2="4966.0522">
		<stop  offset="0" style="stop-color:#81D0B1"/>
		<stop  offset="3.527470e-02" style="stop-color:#81D0B1"/>
		<stop  offset="0.5164" style="stop-color:#72C8BE"/>
		<stop  offset="0.7253" style="stop-color:#6AC4C5"/>
		<stop  offset="1" style="stop-color:#6AC4C5"/>
	</linearGradient>
	
		<path fill="#FFFFFF" stroke="url(#SVGID_1_)" stroke-width="0.85" stroke-linecap="round" stroke-linejoin="round" stroke-miterlimit="10" d="
		M749.1,5049.2c45.9,0,83.2-37.2,83.2-83.2s-37.2-83.2-83.2-83.2c-45.9,0-83.2,37.2-83.2,83.2S703.1,5049.2,749.1,5049.2"/>
	
		<linearGradient id="SVGID_2_" gradientUnits="userSpaceOnUse" x1="255.1172" y1="958.7925" x2="256.5419" y2="958.7925" gradientTransform="matrix(118.287 0 0 -118.287 -29512.2129 118378.7422)">
		<stop  offset="0" style="stop-color:#80CFB0"/>
		<stop  offset="3.527470e-02" style="stop-color:#80CFB0"/>
		<stop  offset="0.5346" style="stop-color:#71C7BE"/>
		<stop  offset="0.7253" style="stop-color:#6AC3C4"/>
		<stop  offset="1" style="stop-color:#6AC3C4"/>
	</linearGradient>
	<linearGradient id="SVGID_3_" gradientUnits="userSpaceOnUse" x1="664.7639" y1="4966.0522" x2="833.425" y2="4966.0522">
		<stop  offset="0" style="stop-color:#81D0B1"/>
		<stop  offset="3.527470e-02" style="stop-color:#81D0B1"/>
		<stop  offset="0.5164" style="stop-color:#72C8BE"/>
		<stop  offset="0.7253" style="stop-color:#6AC4C5"/>
		<stop  offset="1" style="stop-color:#6AC4C5"/>
	</linearGradient>
	
		<path fill="url(#SVGID_2_)" stroke="url(#SVGID_3_)" stroke-width="0.85" stroke-linecap="round" stroke-linejoin="round" stroke-miterlimit="10" d="
		M749.1,5049.2v-0.7c45.6-0.1,82.4-36.9,82.5-82.5c-0.1-45.6-36.9-82.4-82.5-82.5c-45.6,0.1-82.4,36.9-82.5,82.5
		c0.1,45.6,36.9,82.4,82.5,82.5V5049.2v0.7c-46.3,0-83.9-37.6-83.9-83.9c0-46.3,37.6-83.9,83.9-83.9c46.3,0,83.9,37.6,83.9,83.9
		c0,46.3-37.6,83.9-83.9,83.9V5049.2z"/>
	
		<linearGradient id="SVGID_4_" gradientUnits="userSpaceOnUse" x1="254.0574" y1="890.5801" x2="255.4821" y2="890.5801" gradientTransform="matrix(42.0385 0 0 -42.0385 -9938.9951 42384.1133)">
		<stop  offset="0" style="stop-color:#80CFB0"/>
		<stop  offset="3.527470e-02" style="stop-color:#80CFB0"/>
		<stop  offset="0.5346" style="stop-color:#71C7BE"/>
		<stop  offset="0.7253" style="stop-color:#6AC3C4"/>
		<stop  offset="1" style="stop-color:#6AC3C4"/>
	</linearGradient>
	<linearGradient id="SVGID_5_" gradientUnits="userSpaceOnUse" x1="741.1299" y1="4945.46" x2="801.16" y2="4945.46">
		<stop  offset="0" style="stop-color:#81D0B1"/>
		<stop  offset="3.527470e-02" style="stop-color:#81D0B1"/>
		<stop  offset="0.5164" style="stop-color:#72C8BE"/>
		<stop  offset="0.7253" style="stop-color:#6AC4C5"/>
		<stop  offset="1" style="stop-color:#6AC4C5"/>
	</linearGradient>
	
		<path fill="url(#SVGID_4_)" stroke="url(#SVGID_5_)" stroke-width="0.85" stroke-linecap="round" stroke-linejoin="round" stroke-miterlimit="10" d="
		M795,4917.1v11.7c0,0.4-0.3,0.7-0.7,0.7c-0.4,0-0.7-0.3-0.7-0.7v-11.7c0-0.4,0.3-0.7,0.7-0.7C794.6,4916.3,795,4916.7,795,4917.1z
		 M789.7,4917.1v11.7c0,0.4-0.3,0.7-0.7,0.7c-0.4,0-0.7-0.3-0.7-0.7v-11.7c0-0.4,0.3-0.7,0.7-0.7
		C789.4,4916.3,789.7,4916.7,789.7,4917.1z M783.8,4964H800c0.4,0,0.7,0.3,0.7,0.7c0,0.4-0.3,0.7-0.7,0.7h-16.2
		c-0.4,0-0.7-0.3-0.7-0.7C783.1,4964.3,783.4,4964,783.8,4964z M783.8,4958.6H800c0.4,0,0.7,0.3,0.7,0.7s-0.3,0.7-0.7,0.7h-16.2
		c-0.4,0-0.7-0.3-0.7-0.7S783.4,4958.6,783.8,4958.6z M783.8,4948.1H800c0.4,0,0.7,0.3,0.7,0.7s-0.3,0.7-0.7,0.7h-16.2
		c-0.4,0-0.7-0.3-0.7-0.7S783.4,4948.1,783.8,4948.1z M783.8,4943H800c0.4,0,0.7,0.3,0.7,0.7s-0.3,0.7-0.7,0.7h-16.2
		c-0.4,0-0.7-0.3-0.7-0.7S783.4,4943,783.8,4943z M784.5,4922.5v46.4c0,4.5,3.5,6.8,7.1,6.8c3.8,0,7.6-2.5,7.6-7.9v-44.3
		c0-0.4,0.3-0.7,0.7-0.7c0.4,0,0.7,0.3,0.7,0.7l0,44.3c0,6.2-4.6,9.3-9.1,9.3c-4.2,0-8.6-2.8-8.6-8.2v-46.4c0-0.4,0.3-0.7,0.7-0.7
		S784.5,4922.1,784.5,4922.5L784.5,4922.5z M784.5,4914.8v11.4c0,4.5,3.5,6.8,7.1,6.8c3.8,0,7.6-2.5,7.6-7.9v-10.7
		c0-0.4,0.3-0.7,0.7-0.7c0.4,0,0.7,0.3,0.7,0.7l0,10.7c0,6.2-4.6,9.3-9.1,9.3c-4.2,0-8.6-2.8-8.6-8.2v-11.4c0-0.4,0.3-0.7,0.7-0.7
		S784.5,4914.4,784.5,4914.8L784.5,4914.8z M774.2,4917.1v11.7c0,0.4-0.3,0.7-0.7,0.7c-0.4,0-0.7-0.3-0.7-0.7v-11.7
		c0-0.4,0.3-0.7,0.7-0.7C773.9,4916.3,774.2,4916.7,774.2,4917.1z M769,4917.1v11.7c0,0.4-0.3,0.7-0.7,0.7c-0.4,0-0.7-0.3-0.7-0.7
		v-11.7c0-0.4,0.3-0.7,0.7-0.7C768.6,4916.3,769,4916.7,769,4917.1z M763,4964h16.2c0.4,0,0.7,0.3,0.7,0.7c0,0.4-0.3,0.7-0.7,0.7
		H763c-0.4,0-0.7-0.3-0.7-0.7C762.3,4964.3,762.6,4964,763,4964z M763,4958.6h16.2c0.4,0,0.7,0.3,0.7,0.7s-0.3,0.7-0.7,0.7H763
		c-0.4,0-0.7-0.3-0.7-0.7S762.6,4958.6,763,4958.6z M763,4948.1h16.2c0.4,0,0.7,0.3,0.7,0.7s-0.3,0.7-0.7,0.7H763
		c-0.4,0-0.7-0.3-0.7-0.7S762.6,4948.1,763,4948.1z M763,4943h16.2c0.4,0,0.7,0.3,0.7,0.7s-0.3,0.7-0.7,0.7H763
		c-0.4,0-0.7-0.3-0.7-0.7S762.6,4943,763,4943z M763.8,4922.5v46.4c0,4.5,3.5,6.8,7.1,6.8c3.8,0,7.6-2.5,7.6-7.9v-44.3
		c0-0.4,0.3-0.7,0.7-0.7c0.4,0,0.7,0.3,0.7,0.7l0,44.3c0,6.2-4.6,9.3-9.1,9.3c-4.2,0-8.6-2.8-8.6-8.2v-46.4c0-0.4,0.3-0.7,0.7-0.7
		S763.8,4922.1,763.8,4922.5L763.8,4922.5z M763.8,4914.8v11.4c0,4.5,3.5,6.8,7.1,6.8c3.8,0,7.6-2.5,7.6-7.9v-10.7
		c0-0.4,0.3-0.7,0.7-0.7c0.4,0,0.7,0.3,0.7,0.7l0,10.7c0,6.2-4.6,9.3-9.1,9.3c-4.2,0-8.6-2.8-8.6-8.2v-11.4c0-0.4,0.3-0.7,0.7-0.7
		S763.8,4914.4,763.8,4914.8L763.8,4914.8z M753.4,4917.1v11.7c0,0.4-0.3,0.7-0.7,0.7c-0.4,0-0.7-0.3-0.7-0.7v-11.7
		c0-0.4,0.3-0.7,0.7-0.7C753.1,4916.3,753.4,4916.7,753.4,4917.1z M748.2,4917.1v11.7c0,0.4-0.3,0.7-0.7,0.7s-0.7-0.3-0.7-0.7v-11.7
		c0-0.4,0.3-0.7,0.7-0.7S748.2,4916.7,748.2,4917.1z M742.3,4964h16.2c0.4,0,0.7,0.3,0.7,0.7c0,0.4-0.3,0.7-0.7,0.7h-16.2
		c-0.4,0-0.7-0.3-0.7-0.7C741.6,4964.3,741.9,4964,742.3,4964z M742.3,4958.6h16.2c0.4,0,0.7,0.3,0.7,0.7s-0.3,0.7-0.7,0.7h-16.2
		c-0.4,0-0.7-0.3-0.7-0.7S741.9,4958.6,742.3,4958.6z M742.3,4948.1h16.2c0.4,0,0.7,0.3,0.7,0.7s-0.3,0.7-0.7,0.7h-16.2
		c-0.4,0-0.7-0.3-0.7-0.7S741.9,4948.1,742.3,4948.1z M742.3,4943h16.2c0.4,0,0.7,0.3,0.7,0.7s-0.3,0.7-0.7,0.7h-16.2
		c-0.4,0-0.7-0.3-0.7-0.7S741.9,4943,742.3,4943z M743,4922.5v46.4c0,4.5,3.5,6.8,7.1,6.8c3.8,0,7.6-2.5,7.6-7.9v-44.3
		c0-0.4,0.3-0.7,0.7-0.7c0.4,0,0.7,0.3,0.7,0.7l0,44.3c0,6.2-4.6,9.3-9.1,9.3c-4.2,0-8.6-2.8-8.6-8.2v-46.4c0-0.4,0.3-0.7,0.7-0.7
		C742.7,4921.8,743,4922.1,743,4922.5L743,4922.5z M743,4914.8v11.4c0,4.5,3.5,6.8,7.1,6.8c3.8,0,7.6-2.5,7.6-7.9v-10.7
		c0-0.4,0.3-0.7,0.7-0.7c0.4,0,0.7,0.3,0.7,0.7l0,10.7c0,6.2-4.6,9.3-9.1,9.3c-4.2,0-8.6-2.8-8.6-8.2v-11.4c0-0.4,0.3-0.7,0.7-0.7
		C742.7,4914.1,743,4914.4,743,4914.8L743,4914.8z"/>
	
		<linearGradient id="SVGID_6_" gradientUnits="userSpaceOnUse" x1="252.7917" y1="844.6498" x2="254.2164" y2="844.6498" gradientTransform="matrix(29.4008 0 0 -29.4008 -6733.564 29826.4668)">
		<stop  offset="0" style="stop-color:#80CFB0"/>
		<stop  offset="3.527470e-02" style="stop-color:#80CFB0"/>
		<stop  offset="0.5346" style="stop-color:#71C7BE"/>
		<stop  offset="0.7253" style="stop-color:#6AC3C4"/>
		<stop  offset="1" style="stop-color:#6AC3C4"/>
	</linearGradient>
	<linearGradient id="SVGID_7_" gradientUnits="userSpaceOnUse" x1="698.6448" y1="4993.0874" x2="740.6697" y2="4993.0874">
		<stop  offset="0" style="stop-color:#81D0B1"/>
		<stop  offset="3.527470e-02" style="stop-color:#81D0B1"/>
		<stop  offset="0.5164" style="stop-color:#72C8BE"/>
		<stop  offset="0.7253" style="stop-color:#6AC4C5"/>
		<stop  offset="1" style="stop-color:#6AC4C5"/>
	</linearGradient>
	
		<path fill="url(#SVGID_6_)" stroke="url(#SVGID_7_)" stroke-width="0.85" stroke-linecap="round" stroke-linejoin="round" stroke-miterlimit="10" d="
		M715.9,4978l5,5.3l5.3-4.9c0.3-0.3,0.7-0.3,1,0c0.3,0.3,0.3,0.7,0,1l-5.8,5.4l-1,0l-5.5-5.9c-0.3-0.3-0.3-0.7,0-1
		C715.2,4977.7,715.6,4977.8,715.9,4978L715.9,4978z M735,4968.6c0,0-0.8-0.2-2.1-0.2c-3.8,0.1-11.2,1.5-11.3,16
		c0,0.4-0.3,0.7-0.7,0.7c-0.4,0-0.7-0.3-0.7-0.7c0-15.1,8.5-17.4,12.8-17.4c1.4,0,2.4,0.2,2.4,0.2c0.4,0.1,0.6,0.5,0.5,0.9
		C735.8,4968.5,735.4,4968.7,735,4968.6L735,4968.6z M720.9,5012.4v6.1c0,0.4-0.3,0.7-0.7,0.7s-0.7-0.3-0.7-0.7v-6.1
		c0-0.4,0.3-0.7,0.7-0.7S720.9,5012,720.9,5012.4z M710.9,5017.7h17.4c0.4,0,0.7,0.3,0.7,0.7c0,0.4-0.3,0.7-0.7,0.7h-17.4
		c-0.4,0-0.7-0.3-0.7-0.7C710.1,5018.1,710.5,5017.7,710.9,5017.7z M739.5,5007.7h-39.8c-0.4,0-0.7-0.3-0.7-0.7s0.3-0.7,0.7-0.7
		h39.8c0.4,0,0.7,0.3,0.7,0.7S739.9,5007.7,739.5,5007.7z M739.5,5008.7h0.7c0,2.4-2,4.4-4.4,4.4h-32.4c-2.4,0-4.4-2-4.4-4.4v-1.7
		v-16.5c0-2.4,2-4.4,4.4-4.4h32.4c2.4,0,4.4,2,4.4,4.4v18.2H739.5h-0.7v-18.2c0-1.6-1.3-3-3-3h-32.4c-1.6,0-3,1.3-3,3v16.5v1.7
		c0,1.6,1.3,3,3,3h32.4c1.6,0,3-1.3,3-3H739.5z"/>
</g>
<g>
	<linearGradient id="SVGID_8_" gradientUnits="userSpaceOnUse" x1="1.6364" y1="85.2083" x2="168.8729" y2="85.2083">
		<stop  offset="0" style="stop-color:#81D0B1"/>
		<stop  offset="3.527470e-02" style="stop-color:#81D0B1"/>
		<stop  offset="0.5164" style="stop-color:#72C8BE"/>
		<stop  offset="0.7253" style="stop-color:#6AC4C5"/>
		<stop  offset="1" style="stop-color:#6AC4C5"/>
	</linearGradient>
	
		<path fill="#FFFFFF" stroke="url(#SVGID_8_)" stroke-width="0.85" stroke-linecap="round" stroke-linejoin="round" stroke-miterlimit="10" d="
		M85.3,168.4c45.9,0,83.2-37.2,83.2-83.2S131.2,2,85.3,2S2.1,39.3,2.1,85.2S39.3,168.4,85.3,168.4"/>
	
		<linearGradient id="SVGID_9_" gradientUnits="userSpaceOnUse" x1="249.5051" y1="1003.6978" x2="250.9297" y2="1003.6978" gradientTransform="matrix(118.287 0 0 -118.287 -29512.2129 118809.6016)">
		<stop  offset="0" style="stop-color:#80CFB0"/>
		<stop  offset="3.527470e-02" style="stop-color:#80CFB0"/>
		<stop  offset="0.5346" style="stop-color:#71C7BE"/>
		<stop  offset="0.7253" style="stop-color:#6AC3C4"/>
		<stop  offset="1" style="stop-color:#6AC3C4"/>
	</linearGradient>
	<linearGradient id="SVGID_10_" gradientUnits="userSpaceOnUse" x1="0.9241" y1="85.2083" x2="169.5852" y2="85.2083">
		<stop  offset="0" style="stop-color:#81D0B1"/>
		<stop  offset="3.527470e-02" style="stop-color:#81D0B1"/>
		<stop  offset="0.5164" style="stop-color:#72C8BE"/>
		<stop  offset="0.7253" style="stop-color:#6AC4C5"/>
		<stop  offset="1" style="stop-color:#6AC4C5"/>
	</linearGradient>
	
		<path fill="url(#SVGID_9_)" stroke="url(#SVGID_10_)" stroke-width="0.85" stroke-linecap="round" stroke-linejoin="round" stroke-miterlimit="10" d="
		M85.3,168.4v-0.7c45.6-0.1,82.4-36.9,82.5-82.5c-0.1-45.6-36.9-82.4-82.5-82.5C39.7,2.8,2.9,39.7,2.8,85.2
		c0.1,45.6,36.9,82.4,82.5,82.5v0V168.4v0.7c-46.3,0-83.9-37.6-83.9-83.9c0-46.3,37.6-83.9,83.9-83.9c46.3,0,83.9,37.6,83.9,83.9
		c0,46.3-37.6,83.9-83.9,83.9v0V168.4z"/>
	
		<linearGradient id="SVGID_11_" gradientUnits="userSpaceOnUse" x1="245.2665" y1="1008.4697" x2="246.6911" y2="1008.4697" gradientTransform="matrix(70.6213 0 0 -70.6213 -17285.6582 71282.7891)">
		<stop  offset="0" style="stop-color:#80CFB0"/>
		<stop  offset="3.527470e-02" style="stop-color:#80CFB0"/>
		<stop  offset="0.5346" style="stop-color:#71C7BE"/>
		<stop  offset="0.7253" style="stop-color:#6AC3C4"/>
		<stop  offset="1" style="stop-color:#6AC3C4"/>
	</linearGradient>
	<linearGradient id="SVGID_12_" gradientUnits="userSpaceOnUse" x1="35.3093" y1="63.3503" x2="136.0605" y2="63.3503">
		<stop  offset="0" style="stop-color:#81D0B1"/>
		<stop  offset="3.527470e-02" style="stop-color:#81D0B1"/>
		<stop  offset="0.5164" style="stop-color:#72C8BE"/>
		<stop  offset="0.7253" style="stop-color:#6AC4C5"/>
		<stop  offset="1" style="stop-color:#6AC4C5"/>
	</linearGradient>
	
		<path fill="url(#SVGID_11_)" stroke="url(#SVGID_12_)" stroke-width="0.85" stroke-linecap="round" stroke-linejoin="round" stroke-miterlimit="10" d="
		M119.8,83l-11.4,11.4c-0.3,0.3-0.7,0.3-1,0c-0.3-0.3-0.3-0.7,0-1L118.8,82c0.3-0.3,0.7-0.3,1,0C120.1,82.3,120.1,82.8,119.8,83z
		 M51.7,81.8l12.3,12.3c0.3,0.3,0.3,0.7,0,1c-0.3,0.3-0.7,0.3-1,0L50.7,82.9c-0.3-0.3-0.3-0.7,0-1C50.9,81.6,51.4,81.6,51.7,81.8z
		 M100.1,44.5c1.3,1,2.6,1.4,3.9,1.4c4.7,0.1,9.1-5.5,9.2-5.5l1.2,0.1c0,0,3.8,6,8.9,5.9c0.9,0,1.8-0.2,2.8-0.6
		c0.4-0.1,0.8,0,0.9,0.4c0.1,0.4,0,0.8-0.4,0.9c-1.2,0.5-2.3,0.7-3.4,0.7c-6.3-0.1-10.1-6.5-10.1-6.6l0.6-0.4l0.6,0.4
		c-0.1,0-4.6,6-10.3,6.1c-1.6,0-3.2-0.5-4.7-1.7c-0.3-0.2-0.4-0.7-0.1-1C99.3,44.3,99.8,44.2,100.1,44.5L100.1,44.5z M126.3,45.4
		h0.7c0,7.8-6.3,14-14,14c-7.8,0-14-6.3-14-14c0-7.8,6.3-14.1,14-14.1c7.8,0,14,6.3,14,14.1H126.3h-0.7c0-7-5.7-12.6-12.6-12.6
		c-7,0-12.6,5.7-12.6,12.6c0,7,5.6,12.6,12.6,12.6c7,0,12.6-5.7,12.6-12.6H126.3z M107.7,57.3v6.2l-0.6,0.7c0,0-8,1.1-12.7,3.3
		c-2.6,1.2-3.1,3.6-3.1,5.4c0,1.1,0.2,2,0.2,2L90.8,75v-0.7h44.1V75l-0.7-0.1l0-0.3c0-1-0.3-4.7-4.9-7.1c-5.6-2.9-10.8-3.8-10.8-3.8
		l-0.6-0.7v-5.8c0-0.4,0.3-0.7,0.7-0.7c0.4,0,0.7,0.3,0.7,0.7l0,5.8h-0.7l0.1-0.7c0,0,5.3,0.9,11.2,3.9c5.2,2.6,5.6,7,5.6,8.3
		c0,0.2,0,0.4,0,0.4l-0.7,0.6H90.8l-0.7-0.5c0,0-0.3-1-0.3-2.3c0-2,0.7-5.2,4-6.7c5.1-2.3,13.1-3.4,13.1-3.4l0.1,0.7h-0.7v-6.2
		c0-0.4,0.3-0.7,0.7-0.7C107.4,56.6,107.7,56.9,107.7,57.3L107.7,57.3z M45.9,44.5c1.3,1,2.6,1.4,3.9,1.4c4.6,0.1,9.1-5.5,9.2-5.5
		l1.2,0.1c0,0,3.8,6,8.9,5.9c0.9,0,1.8-0.2,2.8-0.6c0.4-0.1,0.8,0,0.9,0.4c0.1,0.4,0,0.8-0.4,0.9c-1.2,0.5-2.3,0.7-3.4,0.7
		c-6.3-0.1-10.1-6.5-10.1-6.6l0.6-0.4l0.6,0.4c-0.1,0-4.6,6-10.3,6.1c-1.6,0-3.2-0.5-4.7-1.7c-0.3-0.2-0.4-0.7-0.1-1
		C45.2,44.3,45.6,44.2,45.9,44.5L45.9,44.5z M72.2,45.4h0.7c0,7.8-6.3,14-14,14c-7.8,0-14-6.3-14-14c0-7.8,6.3-14.1,14-14.1
		c7.8,0,14,6.3,14,14.1H72.2h-0.7c0-7-5.7-12.6-12.6-12.6c-7,0-12.6,5.7-12.6,12.6c0,7,5.6,12.6,12.6,12.6c7,0,12.6-5.7,12.6-12.6
		H72.2z M53.6,57.3v6.2L53,64.2c0,0-8,1.1-12.7,3.3c-2.6,1.2-3.1,3.6-3.1,5.4c0,1.2,0.2,2,0.2,2L36.7,75v-0.7h44.1V75L80.1,75l0-0.3
		c0-1-0.3-4.7-4.9-7.1c-5.6-2.9-10.8-3.8-10.8-3.8l-0.6-0.7v-5.8c0-0.4,0.3-0.7,0.7-0.7c0.4,0,0.7,0.3,0.7,0.7l0,5.8h-0.7l0.1-0.7
		c0,0,5.3,0.9,11.2,3.9c5.2,2.6,5.6,7,5.6,8.3c0,0.2,0,0.4,0,0.4l-0.7,0.6H36.7L36,75.2c0,0-0.3-1-0.3-2.3c0-2,0.7-5.2,4-6.7
		c5.1-2.3,13.1-3.4,13.1-3.4l0.1,0.7h-0.7v-6.2c0-0.4,0.3-0.7,0.7-0.7C53.3,56.6,53.6,56.9,53.6,57.3L53.6,57.3z"/>
	
		<linearGradient id="SVGID_13_" gradientUnits="userSpaceOnUse" x1="235.706" y1="1019.1656" x2="237.1307" y2="1019.1656" gradientTransform="matrix(37 0 0 -37 -8661.7939 37834.2734)">
		<stop  offset="0" style="stop-color:#80CFB0"/>
		<stop  offset="3.527470e-02" style="stop-color:#80CFB0"/>
		<stop  offset="0.5346" style="stop-color:#71C7BE"/>
		<stop  offset="0.7253" style="stop-color:#6AC3C4"/>
		<stop  offset="1" style="stop-color:#6AC3C4"/>
	</linearGradient>
	<linearGradient id="SVGID_14_" gradientUnits="userSpaceOnUse" x1="59.2598" y1="125.1461" x2="112.1108" y2="125.1461">
		<stop  offset="0" style="stop-color:#81D0B1"/>
		<stop  offset="3.527470e-02" style="stop-color:#81D0B1"/>
		<stop  offset="0.5164" style="stop-color:#72C8BE"/>
		<stop  offset="0.7253" style="stop-color:#6AC4C5"/>
		<stop  offset="1" style="stop-color:#6AC4C5"/>
	</linearGradient>
	
		<path fill="url(#SVGID_13_)" stroke="url(#SVGID_14_)" stroke-width="0.85" stroke-linecap="round" stroke-linejoin="round" stroke-miterlimit="10" d="
		M86.4,104.5v40c0,0.4-0.3,0.7-0.7,0.7c-0.4,0-0.7-0.3-0.7-0.7v-40c0-0.4,0.3-0.7,0.7-0.7C86.1,103.8,86.4,104.1,86.4,104.5z
		 M65.4,101.1v-0.7h16.1c4.1,0.1,4.9,4.8,4.9,4.8l-0.7,0.1l-0.7-0.1c0,0,0.7-4.7,5-4.8h16.1l0.7,0.7v36.4l-0.7,0.7H89.6
		c-2.4-0.1-3.2,3.4-3.2,3.4c-0.1,0.3-0.3,0.6-0.7,0.6c-0.3,0-0.6-0.2-0.7-0.5c0,0-1.2-3.6-3.7-3.4h-16l-0.7-0.7l0.1-36.4l0.7-0.7
		V101.1l0.7,0L66,136.8h15.3c3.9,0.1,5.1,4.4,5.1,4.4l-0.7,0.2l-0.7-0.1c0,0,0.7-4.4,4.6-4.5h15.8l0-35l-15.4,0
		c-2.8-0.1-3.6,3.6-3.6,3.6c-0.1,0.3-0.4,0.6-0.7,0.6c-0.3,0-0.6-0.2-0.7-0.6c0,0-0.8-3.8-3.5-3.6H65.4V101.1l0.7,0L65.4,101.1z
		 M65.1,106.7h-4v35.6h14.2c6.7,0.1,7.7,6.7,7.7,6.7l-0.7,0.1v-0.7h7v0.7l-0.7-0.1c0,0,1.2-6.6,6.8-6.7h14.8v-35.6h-4
		c-0.4,0-0.7-0.3-0.7-0.7c0-0.4,0.3-0.7,0.7-0.7l4.7,0l0.7,0.7v37l-0.7,0.7H95.5c-4.1-0.1-5.4,5.6-5.4,5.6l-0.7,0.6h-7l-0.7-0.6
		c0,0-0.8-5.6-6.3-5.5h-15l-0.7-0.7v-37l0.7-0.7h4.7c0.4,0,0.7,0.3,0.7,0.7C65.8,106.4,65.5,106.7,65.1,106.7L65.1,106.7z"/>
</g>
</svg>
