<?xml version="1.0" encoding="utf-8"?>
<!-- Generator: Adobe Illustrator 18.1.0, SVG Export Plug-In . SVG Version: 6.00 Build 0)  -->
<svg version="1.1" id="Layer_1" xmlns="http://www.w3.org/2000/svg" xmlns:xlink="http://www.w3.org/1999/xlink" x="0px" y="0px"
	 viewBox="0 0 222.8 54.5" enable-background="new 0 0 222.8 54.5" xml:space="preserve">
<g>
	<path fill="#FFFFFF" d="M29.2,27.2h-2.7V10.5h2.7V27.2z M21.5,27.2l-1.7-17.1l2.6-0.3L24.1,27L21.5,27.2z M16.8,27.2h-2.7V13.7h2.7
		V27.2z M10.4,27.2L7.9,27L9.6,9l2.6,0.2L10.4,27.2z M28.9,1H9C4.6,1,1,4.6,1,9v17.6c0,4.4,3.6,8,8,8h5.5l3.8,3.6l4.2-3.6h6.3
		c4.4,0,8-3.6,8-8V9C36.8,4.6,33.3,1,28.9,1"/>
	<polygon fill="#FFFFFF" points="52.9,29.4 56.3,29.4 56.3,7.2 52.9,7.2 52.9,5.7 69.3,5.7 69.3,10.6 67.8,10.6 67.8,7.2 57.9,7.2 
		57.9,17.6 67.5,17.6 67.5,19.1 57.9,19.1 57.9,29.4 61.4,29.4 61.4,30.8 52.9,30.8 	"/>
	<path fill="#FFFFFF" d="M91.7,12.5c1.9,0,6.3,0.9,6.3,3.7v1.7h-1.5v-1.4c0-1.7-3.1-2.6-4.8-2.6c-4.2,0-7.7,3.1-7.7,8
		c0,4.8,3.5,7.9,7.7,7.9c2,0,3.5-0.6,4.5-1.3c0.6-0.4,1.1-0.8,1.5-1.3l0.8,1.3c-0.5,0.5-1,1-1.7,1.4c-1.1,0.7-2.8,1.4-5.1,1.4
		c-5.1,0-9.3-3.7-9.3-9.4C82.4,16.2,86.7,12.5,91.7,12.5"/>
	<path fill="#FFFFFF" d="M105.3,23.2v1.9c0,1.9,2.4,3,5.1,3c2.9,0,5-1.4,5-3.9c0-2.9-3-3.9-6.1-5.1c-3.3-1.3-6.7-2.7-6.7-7.2
		c0-4.8,3.8-6.8,8.1-6.8c3.8,0,7.7,1.4,7.7,4.2v3H115v-1.8c0-1.5-2.3-2.3-4.3-2.3c-2.5,0-4.4,1.1-4.4,3.5c0,2.7,2.5,3.6,5.4,4.7
		c3.7,1.4,7.4,2.8,7.4,7.5c0,4.8-3.9,7.4-8.6,7.4c-3.9,0-8.4-1.8-8.4-5.4v-2.7H105.3z"/>
	<path fill="#FFFFFF" d="M122,28.1h2.9v-20h-3.1V5.5h6.5v9.4c0,0.9-0.1,1.5-0.1,1.5h0.1c0.8-1.8,3.2-4.2,6.8-4.2
		c4.3,0,6.2,2.3,6.2,7v8.9h2.8v2.7h-6.3V20c0-2.5-0.5-4.6-3.4-4.6c-3.6,0-6.1,3-6.1,6.9v5.8h2.9v2.7H122V28.1z"/>
	<path fill="#FFFFFF" d="M159.8,19.9c-0.1-3.2-2-4.8-4.3-4.8c-2.7,0-4.8,1.8-5.3,4.8H159.8z M155.6,12.2c5.2,0,7.9,3.8,7.9,8.5
		c0,0.5-0.1,1.3-0.1,1.3H150c0.2,4,3.1,6.2,6.3,6.2c3.2,0,5.4-2,5.4-2l1.4,2.5c0,0-2.7,2.5-7.1,2.5c-5.7,0-9.6-4.1-9.6-9.5
		C146.5,16,150.4,12.2,155.6,12.2"/>
	<path fill="#FFFFFF" d="M168,8.2h-3V5.5h6.5v20c0,1.5,0.4,2.6,1.9,2.6c0.6,0,1,0,1,0l0,2.9c0,0-0.7,0.1-1.5,0.1
		c-2.6,0-4.8-1-4.8-5.3V8.2z"/>
	<path fill="#FFFFFF" d="M177.2,28.1h2.8V15.4h-3v-2.7h3v-0.9c0-5.8,4.4-6.5,6.5-6.5c1,0,1.6,0.1,1.6,0.1v2.9c0,0-0.5-0.1-1.3-0.1
		c-1.1,0-3.4,0.3-3.4,3.6v1h4.4v2.7h-4.4v12.8h3.3v2.7h-9.7V28.1z"/>
	<path fill="#FFFFFF" d="M74.8,5.7h1.9v2.6h-1.9V5.7z M71.7,29.4H75V14.3h-3.4v-1.4h4.9v16.5h3.2v1.4h-8V29.4z"/>
</g>
<g>
	<path fill="#FFFFFF" d="M187.8,51.4h-4.3v-9.8h3.8c0.7,0,1.2,0.1,1.7,0.2s0.8,0.4,1.1,0.6c0.4,0.5,0.7,1.1,0.7,1.7
		c0,0.8-0.2,1.3-0.7,1.7c-0.2,0.1-0.3,0.2-0.4,0.2s-0.2,0.1-0.3,0.2c0.6,0.1,1.1,0.4,1.4,0.8c0.4,0.4,0.5,0.9,0.5,1.5
		c0,0.7-0.2,1.3-0.7,1.8C190.1,51.1,189.1,51.4,187.8,51.4z M185.2,45.7h2.1c1.2,0,1.8-0.4,1.8-1.2c0-0.5-0.1-0.8-0.4-1
		c-0.3-0.2-0.7-0.3-1.3-0.3h-2.1V45.7z M185.2,49.9h2.6c0.6,0,1.1-0.1,1.4-0.3c0.3-0.2,0.5-0.6,0.5-1.1c0-0.9-0.7-1.3-2.1-1.3h-2.4
		V49.9z"/>
	<path fill="#FFFFFF" d="M200.3,41.6v1.6h-5.2v2.6h4.7v1.5h-4.7v2.6h5.4v1.6h-7v-9.8H200.3z"/>
</g>
<g>
	<path fill="#FFFFFF" d="M206.3,43.1v8.3h-1.7v-8.3h-3v-1.5h7.6v1.5H206.3z"/>
</g>
<g>
	<path fill="#FFFFFF" d="M211.6,49.2l-1,2.2h-1.8l4.3-9.8h1.8l4.3,9.8h-1.8l-1-2.2H211.6z M215.9,47.6l-1.8-4l-1.8,4H215.9z"/>
</g>
</svg>
