<?xml version="1.0" encoding="utf-8"?>
<!-- Generator: Adobe Illustrator 18.1.1, SVG Export Plug-In . SVG Version: 6.00 Build 0)  -->
<svg version="1.1" id="Layer_1" xmlns="http://www.w3.org/2000/svg" xmlns:xlink="http://www.w3.org/1999/xlink" x="0px" y="0px"
	 viewBox="0 0 219 54" enable-background="new 0 0 219 54" xml:space="preserve">
<g>
	<g>
		<path fill="#EC5845" d="M28.6,27.3h-2.7V10.5h2.7V27.3z M20.9,27.3l-1.7-17.1l2.6-0.3L23.5,27L20.9,27.3z M16.2,27.3h-2.7V13.8
			h2.7V27.3z M9.8,27.3L7.2,27L8.9,9.1l2.6,0.2L9.8,27.3z M28.2,1.1H8.4c-4.4,0-8,3.6-8,8v17.6c0,4.4,3.6,8,8,8h5.5l3.8,3.6l4.2-3.6
			h6.3c4.4,0,8-3.6,8-8V9C36.2,4.6,32.6,1.1,28.2,1.1"/>
		<polygon fill="#EC5845" points="52.3,29.5 55.7,29.5 55.7,7.2 52.3,7.2 52.3,5.8 68.7,5.8 68.7,10.6 67.2,10.6 67.2,7.2 57.2,7.2 
			57.2,17.7 66.8,17.7 66.8,19.1 57.2,19.1 57.2,29.5 60.8,29.5 60.8,30.9 52.3,30.9 		"/>
		<path fill="#EC5845" d="M91,12.5c1.9,0,6.3,0.9,6.3,3.7V18h-1.5v-1.4c0-1.7-3.1-2.6-4.8-2.6c-4.2,0-7.7,3.1-7.7,8
			c0,4.8,3.5,7.9,7.7,7.9c2,0,3.5-0.6,4.5-1.3c0.6-0.4,1.1-0.8,1.5-1.3l0.8,1.3c-0.5,0.5-1,1-1.7,1.4c-1.1,0.7-2.8,1.4-5.1,1.4
			c-5.1,0-9.3-3.7-9.3-9.4C81.8,16.2,86,12.5,91,12.5"/>
		<path fill="#EC5845" d="M104.7,23.3v1.9c0,1.9,2.4,3,5.1,3c2.9,0,5-1.4,5-3.9c0-2.9-3-3.9-6.1-5.1c-3.3-1.3-6.7-2.7-6.7-7.2
			c0-4.8,3.8-6.8,8.1-6.8c3.8,0,7.7,1.4,7.7,4.2v3h-3.3v-1.8c0-1.5-2.3-2.3-4.3-2.3c-2.5,0-4.4,1.1-4.4,3.5c0,2.7,2.5,3.6,5.4,4.7
			c3.7,1.4,7.4,2.8,7.4,7.5c0,4.8-3.9,7.4-8.6,7.4c-3.9,0-8.4-1.8-8.4-5.4v-2.7H104.7z"/>
		<path fill="#EC5845" d="M121.3,28.2h2.9v-20h-3.1V5.6h6.5V15c0,0.9-0.1,1.5-0.1,1.5h0.1c0.8-1.8,3.2-4.2,6.8-4.2
			c4.3,0,6.2,2.3,6.2,7v8.9h2.8v2.7h-6.3V20.1c0-2.5-0.5-4.6-3.4-4.6c-3.6,0-6.1,3-6.1,6.9v5.8h2.9v2.7h-9.2V28.2z"/>
		<path fill="#EC5845" d="M159.2,19.9c-0.1-3.2-2-4.8-4.3-4.8c-2.7,0-4.8,1.8-5.3,4.8H159.2z M154.9,12.3c5.2,0,7.9,3.8,7.9,8.5
			c0,0.5-0.1,1.3-0.1,1.3h-13.3c0.2,4,3.1,6.2,6.3,6.2c3.2,0,5.4-2,5.4-2l1.4,2.5c0,0-2.7,2.5-7.1,2.5c-5.7,0-9.6-4.1-9.6-9.5
			C145.8,16,149.8,12.3,154.9,12.3"/>
		<path fill="#EC5845" d="M167.3,8.2h-3V5.6h6.5v20c0,1.5,0.4,2.6,1.9,2.6c0.6,0,1,0,1,0l0,2.9c0,0-0.7,0.1-1.5,0.1
			c-2.6,0-4.8-1-4.8-5.3V8.2z"/>
		<path fill="#EC5845" d="M176.5,28.2h2.8V15.4h-3v-2.7h3v-0.9c0-5.8,4.4-6.5,6.5-6.5c1,0,1.6,0.1,1.6,0.1v2.9c0,0-0.5-0.1-1.3-0.1
			c-1.1,0-3.4,0.3-3.4,3.6v1h4.4v2.7h-4.4v12.8h3.3v2.7h-9.7V28.2z"/>
		<g>
			<path fill="#EC5845" d="M187.2,51.4h-4.3v-9.8h3.8c0.7,0,1.2,0.1,1.7,0.2c0.5,0.2,0.8,0.4,1.1,0.6c0.4,0.5,0.7,1.1,0.7,1.7
				c0,0.8-0.2,1.3-0.7,1.7c-0.2,0.1-0.3,0.2-0.4,0.2c-0.1,0-0.2,0.1-0.3,0.2c0.6,0.1,1.1,0.4,1.4,0.8s0.5,0.9,0.5,1.5
				c0,0.7-0.2,1.3-0.7,1.8C189.4,51.1,188.5,51.4,187.2,51.4z M184.5,45.7h2.1c1.2,0,1.8-0.4,1.8-1.2c0-0.5-0.1-0.8-0.4-1
				c-0.3-0.2-0.7-0.3-1.3-0.3h-2.1V45.7z M184.5,49.9h2.6c0.6,0,1.1-0.1,1.4-0.3c0.3-0.2,0.5-0.6,0.5-1.1c0-0.9-0.7-1.3-2.1-1.3
				h-2.4V49.9z"/>
			<path fill="#EC5845" d="M199.6,41.7v1.6h-5.2v2.6h4.7v1.5h-4.7v2.6h5.4v1.6h-7v-9.8H199.6z"/>
		</g>
		<g>
			<path fill="#EC5845" d="M205.6,43.2v8.3H204v-8.3h-3v-1.5h7.6v1.5H205.6z"/>
		</g>
		<g>
			<path fill="#EC5845" d="M211,49.2l-1,2.2h-1.8l4.3-9.8h1.8l4.3,9.8h-1.8l-1-2.2H211z M215.2,47.7l-1.8-4l-1.8,4H215.2z"/>
		</g>
		<path fill="#EC5845" d="M74.1,5.8h1.9v2.6h-1.9V5.8z M71.1,29.5h3.2V14.3h-3.4v-1.4h4.9v16.5h3.2v1.4h-8V29.5z"/>
	</g>
</g>
</svg>
