<?xml version="1.0" encoding="utf-8"?>
<!-- Generator: Adobe Illustrator 18.1.0, SVG Export Plug-In . SVG Version: 6.00 Build 0)  -->
<svg version="1.1" xmlns="http://www.w3.org/2000/svg" xmlns:xlink="http://www.w3.org/1999/xlink" x="0px" y="0px"
	 viewBox="0 0 75 75" enable-background="new 0 0 75 75" xml:space="preserve">
<g id="Layer_1">
</g>
<g id="Layer_2">
	<g>
		<defs>
			<rect id="SVGID_1_" x="3.2" y="4.8" width="68.6" height="65.4"/>
		</defs>
		<clipPath id="SVGID_2_">
			<use xlink:href="#SVGID_1_"  overflow="visible"/>
		</clipPath>
		
			<path clip-path="url(#SVGID_2_)" fill="none" stroke="#FFFFFF" stroke-width="2" stroke-linecap="round" stroke-linejoin="round" d="
			M37.5,10.4v50.4 M10.8,5.9H32c4.5,0,5.5,5.5,5.5,5.5s1-5.5,5.6-5.5h21.2v47.7H43.2c-4.1,0-5.7,5.2-5.7,5.2s-1.6-5.2-5.8-5.2h-21
			L10.8,5.9z M10.5,12.4H4.3V61h19.6c8,0,9.2,8,9.2,8h9.2c0,0,1.7-8,8-8h20.3V12.4h-6.2"/>
	</g>
</g>
<g id="Layer_3">
</g>
<g id="Layer_4">
</g>
</svg>
